…
¿Cuántos temas hay?

legos %>% count(Theme, sort = TRUE)

## # A tibble: 115 x 2
##                      Theme     n
##                      <chr> <int>
##  1                   Duplo   471
##  2               Star Wars   379
##  3                    Town   314
##  4 Collectable Minifigures   311
##  5                    City   282
##  6                Bionicle   276
##  7                 Technic   243
##  8                 Creator   219
##  9                  Castle   206
## 10                  Racers   195
## # ... with 105 more rows
…
Desviación estándar: Mide el grado de dispersión en torno a la media

Rango: Es el tamaño del intervalo que cubren los datos, el mayor valor menos el mínimo

Ejemplo equipos

DataSaurus

library(datasauRus) # install.packages("datasauRus")

# exploramos
datasaurus_dozen

## # A tibble: 1,846 x 3
##    dataset       x       y
##      <chr>   <dbl>   <dbl>
##  1    dino 55.3846 97.1795
##  2    dino 51.5385 96.0256
##  3    dino 46.1538 94.4872
##  4    dino 42.8205 91.4103
##  5    dino 40.7692 88.3333
##  6    dino 38.7179 84.8718
##  7    dino 35.6410 79.8718
##  8    dino 33.0769 77.5641
##  9    dino 28.9744 74.4872
## 10    dino 26.1538 71.4103
## # ... with 1,836 more rows
…
