…
Entonces ¿Y si calculamos todas las correlaciones a pares?

## # A tibble: 5,050 x 3
##           item1                     item2 correlation
##           <chr>                     <chr>       <dbl>
##  1   Laguna Sur              Las Parcelas   0.9979128
##  2  Plaza Maipu                 San Pablo   0.9962208
##  3   Laguna Sur               Plaza Maipu   0.9960967
##  4      Del Sol              Las Parcelas   0.9960689
##  5    La Granja                 San Ramon   0.9960405
##  6 Las Parcelas               Plaza Maipu   0.9955500
##  7 Las Parcelas Protectora De La Infancia   0.9953642
##  8  Plaza Maipu Protectora De La Infancia   0.9953066
##  9    El Parron                 Lo Ovalle   0.9951739
## 10      Neptuno                 San Pablo   0.9951252
## # ... with 5,040 more rows
…
