¡Un worflow para un Aficionado! Y el cuento de como R|Estadística nos ayuda a explorar contado a través de un ejemplo conocido por todos nosotros
…
Que es? Wrapper de R para highcharts

Que intenta ser? Más que un wrapper para highcharts.

Como? Una ayuda a quienes no js/html hablantes para hacer visualizaciones atractivas ofreciendo (EMHO)

Demo I: Metro

Idea

Se tienen el ingreso promedio de personas cada media hora. Exploremos que estaciones se comportan de forma similar.

Data

## # A tibble: 3,922 × 3
##    paraderosubida mediahora subidas_laboral_promedio
##             <chr>     <dbl>                    <dbl>
## 1       Alcantara  19800000                      2.6
## 2       Alcantara  21600000                     13.2
## 3       Alcantara  23400000                     53.4
## 4       Alcantara  25200000                    184.8
## 5       Alcantara  27000000                    364.0
## 6       Alcantara  28800000                    546.2
## 7       Alcantara  30600000                    478.6
## 8       Alcantara  32400000                    359.0
## 9       Alcantara  34200000                    275.4
## 10      Alcantara  36000000                    229.6
## # ... with 3,912 more rows

Explorar

Explorar

Correlaciones

dcor <- pairwise_cor(data, paraderosubida, mediahora, subidas_laboral_promedio,
                     upper = FALSE) 

## # A tibble: 5,565 × 3
##              item1                     item2 correlation
##              <chr>                     <chr>       <dbl>
## 1       Laguna Sur              Las Parcelas   0.9979128
## 2       Laguna Sur               Plaza Maipu   0.9960967
## 3          Del Sol              Las Parcelas   0.9960689
## 4        La Granja                 San Ramon   0.9960405
## 5  Los Presidentes              San Pablo L5   0.9959830
## 6     Las Parcelas               Plaza Maipu   0.9955500
## 7       Laguna Sur              San Pablo L5   0.9953882
## 8     Las Parcelas Protectora De La Infancia   0.9953642
## 9      Plaza Maipu Protectora De La Infancia   0.9953066
## 10       El Parron                 Lo Ovalle   0.9951739
## # ... with 5,555 more rows
…
Preparando Datos

data2 <- spread(data, mediahora, subidas_laboral_promedio)
data2

## # A tibble: 106 × 38
##              paraderosubida m19800 m21600 m23400 m25200 m27000 m28800
## *                     <chr>  <dbl>  <dbl>  <dbl>  <dbl>  <dbl>  <dbl>
## 1                 Alcantara    2.6   13.2   53.4  184.8  364.0  546.2
## 2              Baquedano L1   86.6  125.4  208.4  397.8  521.6  589.0
## 3              Baquedano L5    1.4    7.2   26.2   95.6  199.8  193.2
## 4                 Barrancas   37.0  195.4  406.4  736.8  799.6  660.4
## 5              Bellas Artes    6.6   37.0   92.2  177.6  282.2  295.2
## 6  Bellavista De La Florida  157.6  297.8  565.8 1113.6 1162.8 1303.4
## 7                Blanqueado   35.8  199.6  411.4  646.4  736.8  620.6
## 8               Cal Y Canto  103.0  575.2 1281.0 2309.0 2640.2 2484.0
## 9           Camino Agricola   38.2  113.2  281.6  530.6  606.0  572.6
## 10        Carlos Valdovinos   46.2  113.0  210.4  342.4  431.0  407.4
## # ... with 96 more rows, and 31 more variables: m30600 <dbl>,
## #   m32400 <dbl>, m34200 <dbl>, m36000 <dbl>, m37800 <dbl>, m39600 <dbl>,
## #   m41400 <dbl>, m43200 <dbl>, m45000 <dbl>, m46800 <dbl>, m48600 <dbl>,
## #   m50400 <dbl>, m52200 <dbl>, m54000 <dbl>, m55800 <dbl>, m57600 <dbl>,
## #   m59400 <dbl>, m61200 <dbl>, m63000 <dbl>, m64800 <dbl>, m66600 <dbl>,
## #   m68400 <dbl>, m70200 <dbl>, m72000 <dbl>, m73800 <dbl>, m75600 <dbl>,
## #   m77400 <dbl>, m79200 <dbl>, m81000 <dbl>, m82800 <dbl>, m84600 <dbl>

Resumir información

## # A tibble: 106 × 3
##             x           y           paraderosubida
##         <dbl>       <dbl>                    <chr>
## 1   0.6152527 -0.48296229                Alcantara
## 2   0.2935095  0.05091085             Baquedano L1
## 3   0.7144494 -0.49919269             Baquedano L5
## 4   0.6792779 -0.67608137                Barrancas
## 5   0.6541620 -0.37527514             Bellas Artes
## 6   0.2514467 -0.51957286 Bellavista De La Florida
## 7   0.6940620 -0.69304777               Blanqueado
## 8  -0.6111350 -0.03449196              Cal Y Canto
## 9   0.5719649 -0.38093397          Camino Agricola
## 10  0.7130528 -0.60794134        Carlos Valdovinos
## # ... with 96 more rows
…
