…
```r
# ejemplo 3 ---------------------------------------------------------------
gp1 <- gapminder %>% 
  arrange(desc(year)) %>% 
  distinct(country, .keep_all = TRUE)
gp1
```

```
## # A tibble: 142 x 6
##        country continent  year lifeExp       pop  gdpPercap
##         <fctr>    <fctr> <int>   <dbl>     <int>      <dbl>
##  1 Afghanistan      Asia  2007  43.828  31889923   974.5803
##  2     Albania    Europe  2007  76.423   3600523  5937.0295
##  3     Algeria    Africa  2007  72.301  33333216  6223.3675
##  4      Angola    Africa  2007  42.731  12420476  4797.2313
##  5   Argentina  Americas  2007  75.320  40301927 12779.3796
##  6   Australia   Oceania  2007  81.235  20434176 34435.3674
##  7     Austria    Europe  2007  79.829   8199783 36126.4927
##  8     Bahrain      Asia  2007  75.635    708573 29796.0483
##  9  Bangladesh      Asia  2007  64.062 150448339  1391.2538
## 10     Belgium    Europe  2007  79.441  10392226 33692.6051
## # ... with 132 more rows
```

```r
gp2 <- gapminder %>% 
  group_by(country) %>% 
  do(data = .$lifeExp)
gp2
```

```
## Source: local data frame [142 x 2]
## Groups: <by row>
## 
## # A tibble: 142 x 2
##        country       data
##  *      <fctr>     <list>
##  1 Afghanistan <dbl [12]>
##  2     Albania <dbl [12]>
##  3     Algeria <dbl [12]>
##  4      Angola <dbl [12]>
##  5   Argentina <dbl [12]>
##  6   Australia <dbl [12]>
##  7     Austria <dbl [12]>
##  8     Bahrain <dbl [12]>
##  9  Bangladesh <dbl [12]>
## 10     Belgium <dbl [12]>
## # ... with 132 more rows
```
…
