Código ejemplo
…
## Observations: 1,704
## Variables: 6
## $ country   <fctr> Afghanistan, Afghanistan, Afghanistan, Afghanistan,...
## $ continent <fctr> Asia, Asia, Asia, Asia, Asia, Asia, Asia, Asia, Asi...
## $ year      <int> 1952, 1957, 1962, 1967, 1972, 1977, 1982, 1987, 1992...
## $ lifeExp   <dbl> 28.801, 30.332, 31.997, 34.020, 36.088, 38.438, 39.8...
## $ pop       <int> 8425333, 9240934, 10267083, 11537966, 13079460, 1488...
## $ gdpPercap <dbl> 779.4453, 820.8530, 853.1007, 836.1971, 739.9811, 78...

gp <- gapminder %>% 
  arrange(desc(year)) %>% 
  distinct(country, .keep_all = TRUE)
gp

## # A tibble: 142 x 6
##        country continent  year lifeExp       pop  gdpPercap
##         <fctr>    <fctr> <int>   <dbl>     <int>      <dbl>
##  1 Afghanistan      Asia  2007  43.828  31889923   974.5803
##  2     Albania    Europe  2007  76.423   3600523  5937.0295
##  3     Algeria    Africa  2007  72.301  33333216  6223.3675
##  4      Angola    Africa  2007  42.731  12420476  4797.2313
##  5   Argentina  Americas  2007  75.320  40301927 12779.3796
##  6   Australia   Oceania  2007  81.235  20434176 34435.3674
##  7     Austria    Europe  2007  79.829   8199783 36126.4927
##  8     Bahrain      Asia  2007  75.635    708573 29796.0483
##  9  Bangladesh      Asia  2007  64.062 150448339  1391.2538
## 10     Belgium    Europe  2007  79.441  10392226 33692.6051
## # ... with 132 more rows

hc <- hchart(gp, "point", hcaes(lifeExp, gdpPercap, size = pop, group = continent))

hc %>% 
  hc_yAxis(type = "logarithmic")

gp2 <- gapminder %>% 
  group_by(country) %>% 
  do(lifeexpdata = .$lifeExp)
gp2

## Source: local data frame [142 x 2]
## Groups: <by row>
## 
## # A tibble: 142 x 2
##        country lifeexpdata
##  *      <fctr>      <list>
##  1 Afghanistan  <dbl [12]>
##  2     Albania  <dbl [12]>
##  3     Algeria  <dbl [12]>
##  4      Angola  <dbl [12]>
##  5   Argentina  <dbl [12]>
##  6   Australia  <dbl [12]>
##  7     Austria  <dbl [12]>
##  8     Bahrain  <dbl [12]>
##  9  Bangladesh  <dbl [12]>
## 10     Belgium  <dbl [12]>
## # ... with 132 more rows
…
