…
hchart

hchart(princomp(USArrests, cor = TRUE))

hchart

hchart(cor(mtcars))

hchart en data.frames

data(economics, economics_long, package = "ggplot2")
print(economics, n = 3); print(economics_long, n = 3)

## # A tibble: 574 x 6
##         date   pce    pop psavert uempmed unemploy
##       <date> <dbl>  <int>   <dbl>   <dbl>    <int>
## 1 1967-07-01 507.4 198712    12.5     4.5     2944
## 2 1967-08-01 510.5 198911    12.5     4.7     2945
## 3 1967-09-01 516.3 199113    11.7     4.6     2958
## # ... with 571 more rows

## # A tibble: 2,870 x 4
## # Groups:   variable [5]
##         date variable value      value01
##       <date>   <fctr> <dbl>        <dbl>
## 1 1967-07-01      pce 507.4 0.0000000000
## 2 1967-08-01      pce 510.5 0.0002660008
## 3 1967-09-01      pce 516.3 0.0007636797
## # ... with 2,867 more rows
…
