index.utf8.md
…
hcpaises <- hcpaises %>% 
  hc_tooltip(pointFormat = tt, useHTML = TRUE, headerFormat = "")

paises3 <- paises %>% 
  select(pais, x = anio, y = esperanza_de_vida) %>% 
  nest(-pais) %>% 
  rename(ttdata = data) %>% 
  mutate(ttdata = map(ttdata, list_parse))
  
paises3

## # A tibble: 142 x 2
##    pais       ttdata     
##    <fct>      <list>     
##  1 Afganistán <list [12]>
##  2 Albania    <list [12]>
##  3 Argelia    <list [12]>
##  4 Angola     <list [12]>
##  5 Argentina  <list [12]>
##  6 Australia  <list [12]>
##  7 Austria    <list [12]>
##  8 Baréin     <list [12]>
##  9 Bangladesh <list [12]>
## 10 Bélgica    <list [12]>
## # … with 132 more rows
…
