Computación estadística con R
…
No es la única opción en R para graficar

Datos

theme_set(theme_gray())

library(tidyverse)
library(gapminder)
data(gapminder)
paises <- gapminder %>% 
  filter(year == max(year))
paises

## # A tibble: 142 x 6
##    country     continent  year lifeExp       pop gdpPercap
##    <fct>       <fct>     <int>   <dbl>     <int>     <dbl>
##  1 Afghanistan Asia       2007    43.8  31889923      975.
##  2 Albania     Europe     2007    76.4   3600523     5937.
##  3 Algeria     Africa     2007    72.3  33333216     6223.
##  4 Angola      Africa     2007    42.7  12420476     4797.
##  5 Argentina   Americas   2007    75.3  40301927    12779.
##  6 Australia   Oceania    2007    81.2  20434176    34435.
##  7 Austria     Europe     2007    79.8   8199783    36126.
##  8 Bahrain     Asia       2007    75.6    708573    29796.
##  9 Bangladesh  Asia       2007    64.1 150448339     1391.
## 10 Belgium     Europe     2007    79.4  10392226    33693.
## # ... with 132 more rows
…
¿Cuántos temas hay?

legos %>% 
  count(Theme, sort = TRUE)

## # A tibble: 115 x 2
##    Theme                       n
##    <chr>                   <int>
##  1 Duplo                     471
##  2 Star Wars                 379
##  3 Town                      314
##  4 Collectable Minifigures   311
##  5 City                      282
##  6 Bionicle                  276
##  7 Technic                   243
##  8 Creator                   219
##  9 Castle                    206
## 10 Racers                    195
## # ... with 105 more rows
…
