index.utf8.md
…
hcbr2 <- hcbr %>% 
  hc_tooltip(pointFormat = tt, useHTML = TRUE, headerFormat = "")

dabt_temporal <- read_excel("data/BasesEstadosSerie.xlsx") %>% 
  select(Sigla, x = ANO, y = PIB_Estadual) %>% 
  nest(-Sigla) %>% 
  rename(ttdata = data) %>% 
  mutate(ttdata = map(ttdata, list_parse))
  
dabt_temporal

## # A tibble: 27 x 2
##    Sigla ttdata     
##    <chr> <list>     
##  1 AC    <list [26]>
##  2 AL    <list [26]>
##  3 AM    <list [26]>
##  4 AP    <list [26]>
##  5 BA    <list [26]>
##  6 CE    <list [26]>
##  7 DF    <list [26]>
##  8 ES    <list [26]>
##  9 GO    <list [26]>
## 10 MA    <list [26]>
## # ... with 17 more rows
…
